[Project ID]
Signature=UE Proj: v.1
[Project Information]
Use Relative Directory=1
Relative to Project File=1
Include Sub Directories=1
Project Tagfile=
Project Wordfile=
Project TpFile=
Filter=
Create Tagfile=0
[Files]
0=Project\Discover\src\ccbox.h
1=Project\Discover\src\ch703xerr.h
2=Project\Discover\src\CH7033.c
3=Project\Discover\src\CH7033.h
4=Project\Discover\src\LC75106.c
5=Project\Discover\src\LC75106.h
6=Project\Discover\src\main.c
